<?xml version="1.0" encoding="utf-8"?>
<!-- Generator: Adobe Illustrator 25.4.1, SVG Export Plug-In . SVG Version: 6.00 Build 0)  -->
<svg version="1.1" id="Layer_1" xmlns="http://www.w3.org/2000/svg" xmlns:xlink="http://www.w3.org/1999/xlink" x="0px" y="0px"
	 viewBox="0 0 1080 1080" style="enable-background:new 0 0 1080 1080;" xml:space="preserve">
<style type="text/css">
	.st0{fill:#414042;}
</style>
<g>
	<path class="st0" d="M1030.33,402.25c-18.71,0-33.74,15.09-33.74,33.7v520.06c0,18.61,15.03,33.82,33.74,33.82
		c18.61,0,33.65-15.21,33.65-33.82V435.95C1063.98,417.33,1048.94,402.25,1030.33,402.25"/>
	<path class="st0" d="M333.1,456.88c0-32.86-26.86-59.65-59.59-59.65h-82.92c-32.74,0-59.51,26.79-59.51,59.65v93.49H333.1V456.88z"
		/>
	<path class="st0" d="M877.52,397.23H442.23c-32.83,0-59.69,26.79-59.69,59.65v140.94H83.47V124.07c0-18.68-15.18-33.89-33.74-33.89
		c-18.62,0-33.71,15.21-33.71,33.89v831.94c0,18.61,15.09,33.82,33.71,33.82c18.56,0,33.74-15.21,33.74-33.82v-85.26h794.06
		c32.77,0,59.54-26.68,59.54-59.6V456.88C937.07,424.02,910.29,397.23,877.52,397.23 M382.54,828.38H83.5V640.15h299.04V828.38z"/>
</g>
</svg>
